\relax 
\providecommand\hyper@newdestlabel[2]{}
\providecommand\HyperFirstAtBeginDocument{\AtBeginDocument}
\HyperFirstAtBeginDocument{\ifx\hyper@anchor\@undefined
\global\let\oldcontentsline\contentsline
\gdef\contentsline#1#2#3#4{\oldcontentsline{#1}{#2}{#3}}
\global\let\oldnewlabel\newlabel
\gdef\newlabel#1#2{\newlabelxx{#1}#2}
\gdef\newlabelxx#1#2#3#4#5#6{\oldnewlabel{#1}{{#2}{#3}}}
\AtEndDocument{\ifx\hyper@anchor\@undefined
\let\contentsline\oldcontentsline
\let\newlabel\oldnewlabel
\fi}
\fi}
\global\let\hyper@last\relax 
\gdef\HyperFirstAtBeginDocument#1{#1}
\providecommand\HyField@AuxAddToFields[1]{}
\providecommand\HyField@AuxAddToCoFields[2]{}
\providecommand \oddpage@label [2]{}
\citation{parent}
\citation{parent}
\@writefile{toc}{\contentsline {section}{\numberline {1}Introduction}{2}{section.1}}
\@writefile{toc}{\contentsline {section}{\numberline {2}Methodology}{2}{section.2}}
\@writefile{toc}{\contentsline {subsection}{\numberline {2.1}Analytical}{2}{subsection.2.1}}
\@writefile{toc}{\contentsline {subsection}{\numberline {2.2}Jacobian Pseudo-Inverse}{2}{subsection.2.2}}
\citation{Buss}
\citation{wampler}
\providecommand*\caption@xref[2]{\@setref\relax\@undefined{#1}}
\newlabel{eq:jacobian}{{\caption@xref {eq:jacobian}{ on input line 93}}{3}{Jacobian Pseudo-Inverse}{equation.2.1}{}}
\newlabel{eq:jacobian@cref}{{[subsection][2][2]2.2}{3}}
\newlabel{eq:theta}{{\caption@xref {eq:theta}{ on input line 100}}{3}{Jacobian Pseudo-Inverse}{equation.2.2}{}}
\newlabel{eq:theta@cref}{{[subsection][2][2]2.2}{3}}
\newlabel{eq:pseudo}{{\caption@xref {eq:pseudo}{ on input line 107}}{3}{Jacobian Pseudo-Inverse}{equation.2.3}{}}
\newlabel{eq:pseudo@cref}{{[subsection][2][2]2.2}{3}}
\newlabel{eq:V}{{\caption@xref {eq:V}{ on input line 114}}{3}{Jacobian Pseudo-Inverse}{equation.2.4}{}}
\newlabel{eq:V@cref}{{[subsection][2][2]2.2}{3}}
\citation{Buss}
\citation{ccd}
\citation{utah}
\@writefile{toc}{\contentsline {subsection}{\numberline {2.3}Damped Least Squares Method}{4}{subsection.2.3}}
\newlabel{eq:damp}{{5}{4}{Damped Least Squares Method}{equation.2.5}{}}
\newlabel{eq:damp@cref}{{[equation][5][]5}{4}}
\@writefile{toc}{\contentsline {subsection}{\numberline {2.4}Other methods}{4}{subsection.2.4}}
\@writefile{toc}{\contentsline {section}{\numberline {3}Task 1}{4}{section.3}}
\@writefile{toc}{\contentsline {section}{\numberline {4}Task 2}{5}{section.4}}
\@writefile{lof}{\contentsline {figure}{\numberline {4.1}{\ignorespaces Distance plots\relax }}{5}{figure.caption.8}}
\newlabel{fig:distance}{{4.1}{5}{Distance plots\relax }{figure.caption.8}{}}
\newlabel{fig:distance@cref}{{[figure][1][4]4.1}{5}}
\@writefile{lof}{\contentsline {subfigure}{\numberline{(a)}{\ignorespaces {Against time steps}}}{5}{subfigure.1.1}}
\@writefile{lof}{\contentsline {subfigure}{\numberline{(b)}{\ignorespaces {Against frames}}}{5}{subfigure.1.2}}
\@writefile{toc}{\contentsline {section}{\numberline {5}Task 3}{5}{section.5}}
\citation{parent}
\citation{parent}
\@writefile{lof}{\contentsline {figure}{\numberline {5.1}{\ignorespaces Wrapped around bones\relax }}{6}{figure.caption.9}}
\newlabel{fig:wrapped}{{5.1}{6}{Wrapped around bones\relax }{figure.caption.9}{}}
\newlabel{fig:wrapped@cref}{{[figure][1][5]5.1}{6}}
\newlabel{eq:stiff}{{\caption@xref {eq:stiff}{ on input line 155}}{7}{Task 3}{equation.5.6}{}}
\newlabel{eq:stiff@cref}{{[section][5][]5}{7}}
\newlabel{eq:z}{{\caption@xref {eq:z}{ on input line 162}}{7}{Task 3}{equation.5.7}{}}
\newlabel{eq:z@cref}{{[section][5][]5}{7}}
\@writefile{toc}{\contentsline {section}{\numberline {6}Comparison}{7}{section.6}}
\@writefile{lof}{\contentsline {figure}{\numberline {6.1}{\ignorespaces Comparison of convergence rate between methods\relax }}{8}{figure.caption.12}}
\newlabel{tab:comp}{{6.1}{8}{Comparison of convergence rate between methods\relax }{figure.caption.12}{}}
\newlabel{tab:comp@cref}{{[figure][1][6]6.1}{8}}
\@writefile{toc}{\contentsline {section}{\numberline {7}Further Implementation Choices}{8}{section.7}}
\@writefile{toc}{\contentsline {section}{\numberline {8}Conclusion}{8}{section.8}}
\bibstyle{plain}
\bibdata{refs}
\bibcite{utah}{1}
\bibcite{ccd}{2}
\bibcite{Buss}{3}
\bibcite{parent}{4}
\bibcite{wampler}{5}
