\begin{thebibliography}{1}

\bibitem{utah}
Character animation.
\newblock \url{http://www.cs.utah.edu/~kwu/courses/cs6665/cs6665.html}.
\newblock Accessed: 20/11/15.

\bibitem{ccd}
Cyclic coordinate descent in 2d.
\newblock
  \url{http://www.ryanjuckett.com/programming/cyclic-coordinate-descent-in-2d/}.
\newblock Accessed: 20/11/15.

\bibitem{Buss}
Samuel~R. Buss.
\newblock Introduction to inverse kinematics with jacobian transpose,
  pseudoinverse and damped least squares methods.
\newblock Technical report, IEEE Journal of Robotics and Automation, 2004.

\bibitem{parent}
Rick Parent.
\newblock {\em Computer animation: algorithms and techniques}.
\newblock Newnes, 2012.

\bibitem{wampler}
C.W. Wampler.
\newblock Manipulator inverse kinematic solutions based on vector formulations
  and damped least-squares methods.
\newblock {\em Systems, Man and Cybernetics, IEEE Transactions on},
  16(1):93--101, Jan 1986.

\end{thebibliography}
